{"count":239,"next":"https://ll.thespacedevs.com/2.0.0/launch/upcoming/?limit=10&offset=10","previous":null,"results":[{"id":"6ec66610-b96c-4e3d-86f2-207068789781","url":"https://ll.thespacedevs.com/2.0.0/launch/6ec66610-b96c-4e3d-86f2-207068789781/","launch_library_id":1824,"slug":"pslv-xl-eos-6-oceansat-3-rideshare","name":"PSLV-XL | EOS-6 (Oceansat-3) & rideshare","status":{"id":3,"name":"Success"},"net":"2022-11-26T06:26:00Z","window_end":"2022-11-26T10:00:00Z","window_start":"2022-11-26T06:00:00Z","inhold":false,"tbdtime":true,"tbddate":true,"probability":-1,"holdreason":"","failreason":"","hashtag":null,"launch_service_provider":{"id":31,"url":"https://ll.thespacedevs.com/2.0.0/agencies/31/","name":"Indian Space Research Organization","type":"Government"},"rocket":{"id":2356,"configuration":{"id":38,"launch_library_id":38,"url":"https://ll.thespacedevs.com/2.0.0/config/launcher/38/","name":"PSLV-XL","family":"PSLV","full_name":"PSLV XL","variant":"XL"}},"mission":{"id":981,"launch_library_id":1193,"name":"EOS-6 (Oceansat-3) & rideshare","description":"Oceansat-3 is a part of ISRO's Oceansat program. Its main purpose is ocean observation, which includes gathering ocean color data, sea surface temperature measurements and wind vector data.","launch_designator":null,"type":"Earth Science","orbit":{"id":17,"name":"Sun-Synchronous Orbit","abbrev":"SSO"}},"pad":{"id":50,"url":"https://ll.thespacedevs.com/2.0.0/pad/50/","agency_id":31,"name":"Satish Dhawan Space Centre First Launch Pad","info_url":null,"wiki_url":"https://en.wikipedia.org/wiki/Satish_Dhawan_Space_Centre_First_Launch_Pad","map_url":"https://www.google.com/maps?q=13.733,80.235","latitude":"13.733","longitude":"80.235","location":{"id":14,"url":"https://ll.thespacedevs.com/2.0.0/location/14/","name":"Sriharikota, Republic of India","country_code":"IND","map_image":"https://spacelaunchnow-prod-east.nyc3.digitaloceanspaces.com/media/launch_images/location_14_20200803142403.jpg","total_launch_count":83,"total_landing_count":0},"map_image":"https://spacelaunchnow-prod-east.nyc3.digitaloceanspaces.com/media/launch_images/pad_50_20200803143457.jpg","total_launch_count":53},"webcast_live":false,"image":"https://spacelaunchnow-prod-east.nyc3.digitaloceanspaces.com/media/launcher_images/pslv_image_20190224012254.jpeg","infographic":null,"program":[]},{"id":"8b360e14-f90d-4a34-9a81-cb5a5ac364c1","url":"https://ll.thespacedevs.com/2.0.0/launch/8b360e14-f90d-4a34-9a81-cb5a5ac364c1/","launch_library_id":null,"slug":"falcon-9-block-5-dragon-crs-2-spx-26","name":"Falcon 9 Block 5 | Dragon CRS-2 SpX-26","status":{"id":3,"name":"Success"},"net":"2022-11-26T19:20:43Z","window_end":"2022-11-26T19:20:43Z","window_start":"2022-11-26T19:20:43Z","inhold":false,"tbdtime":false,"tbddate":false,"probability":90,"holdreason":"","failreason":"","hashtag":null,"launch_service_provider":{"id":121,"url":"https://ll.thespacedevs.com/2.0.0/agencies/121/","name":"SpaceX","type":"Commercial"},"rocket":{"id":7458,"configuration":{"id":164,"launch_library_id":188,"url":"https://ll.thespacedevs.com/2.0.0/config/launcher/164/","name":"Falcon 9","family":"Falcon","full_name":"Falcon 9 Block 5","variant":"Block 5"}},"mission":{"id":5856,"launch_library_id":null,"name":"Dragon CRS-2 SpX-26","description":"26th commercial resupply services mission to the International Space Station operated by SpaceX. The flight will be conducted under the second Commercial Resupply Services contract with NASA.\r\n\r\nCargo Dragon 2 brings supplies and payloads, including critical materials to directly support science and research investigations that occur onboard the orbiting laboratory.","launch_designator":null,"type":"Resupply","orbit":{"id":8,"name":"Low Earth Orbit","abbrev":"LEO"}},"pad":{"id":87,"url":"https://ll.thespacedevs.com/2.0.0/pad/87/","agency_id":null,"name":"Launch Complex 39A","info_url":null,"wiki_url":"https://en.wikipedia.org/wiki/Kennedy_Space_Center_Launch_Complex_39#Launch_Pad_39A","map_url":"http://maps.google.com/maps?q=28.608+N,+80.604+W","latitude":"28.60822681","longitude":"-80.60428186","location":{"id":27,"url":"https://ll.thespacedevs.com/2.0.0/location/27/","name":"Kennedy Space Center, FL, USA","country_code":"USA","map_image":"https://spacelaunchnow-prod-east.nyc3.digitaloceanspaces.com/media/launch_images/location_27_20200803142447.jpg","total_launch_count":211,"total_landing_count":0},"map_image":"https://spacelaunchnow-prod-east.nyc3.digitaloceanspaces.com/media/launch_images/pad_87_20200803143537.jpg","total_launch_count":153},"webcast_live":false,"image":"https://spacelaunchnow-prod-east.nyc3.digitaloceanspaces.com/media/launch_images/falcon2520925_image_20210922155149.jpeg","infographic":null,"program":[{"id":11,"url":"https://ll.thespacedevs.com/2.0.0/program/11/","name":"Commercial Resupply Services","description":"Commercial Resupply Services (CRS) are a series of flights awarded by NASA for the delivery of cargo and supplies to the International Space Station.The first CRS contracts were signed in 2008 and awarded $1.6 billion to SpaceX for twelve cargo Dragon and $1.9 billion to Orbital Sciences for eight Cygnus flights, covering deliveries to 2016. The Falcon 9 and Antares rockets were also developed under the CRS program to deliver cargo spacecraft to the ISS.","agencies":[{"id":44,"url":"https://ll.thespacedevs.com/2.0.0/agencies/44/","name":"National Aeronautics and Space Administration","type":"Government"},{"id":257,"url":"https://ll.thespacedevs.com/2.0.0/agencies/257/","name":"Northrop Grumman Space Systems","type":"Commercial"},{"id":1020,"url":"https://ll.thespacedevs.com/2.0.0/agencies/1020/","name":"Sierra Nevada Corporation","type":"Commercial"},{"id":121,"url":"https://ll.thespacedevs.com/2.0.0/agencies/121/","name":"SpaceX","type":"Commercial"}],"image_url":"https://spacelaunchnow-prod-east.nyc3.digitaloceanspaces.com/media/program_images/commercial2520_program_20201129212219.png","start_date":"2008-12-23T00:00:00Z","end_date":null,"info_url":null,"wiki_url":"https://en.wikipedia.org/wiki/Commercial_Resupply_Services#Commercial_Resupply_Services"},{"id":17,"url":"https://ll.thespacedevs.com/2.0.0/program/17/","name":"International Space Station","description":"The International Space Station programme is tied together by a complex set of legal, political and financial agreements between the sixteen nations involved in the project, governing ownership of the various components, rights to crewing and utilization, and responsibilities for crew rotation and resupply of the International Space Station. It was conceived in 1984 by President Ronald Reagan, during the Space Station Freedom project as it was originally called.","agencies":[{"id":16,"url":"https://ll.thespacedevs.com/2.0.0/agencies/16/","name":"Canadian Space Agency","type":"Government"},{"id":27,"url":"https://ll.thespacedevs.com/2.0.0/agencies/27/","name":"European Space Agency","type":"Multinational"},{"id":37,"url":"https://ll.thespacedevs.com/2.0.0/agencies/37/","name":"Japan Aerospace Exploration Agency","type":"Government"},{"id":44,"url":"https://ll.thespacedevs.com/2.0.0/agencies/44/","name":"National Aeronautics and Space Administration","type":"Government"},{"id":63,"url":"https://ll.thespacedevs.com/2.0.0/agencies/63/","name":"Russian Federal Space Agency (ROSCOSMOS)","type":"Government"}],"image_url":"https://spacelaunchnow-prod-east.nyc3.digitaloceanspaces.com/media/program_images/international2_program_20201129184745.png","start_date":"1998-11-20T06:40:00Z","end_date":null,"info_url":"https://www.nasa.gov/mission_pages/station/main/index.html","wiki_url":"https://en.wikipedia.org/wiki/International_Space_Station_programme"}]},{"id":"18c92c9d-aed9-4b41-9594-5e16fd1daf81","url":"https://ll.thespacedevs.com/2.0.0/launch/18c92c9d-aed9-4b41-9594-5e16fd1daf81/","launch_library_id":null,"slug":"long-march-2d-yaogan-36-group-03","name":"Long March 2D | Yaogan 36 Group 03 (?)","status":{"id":1,"name":"Go"},"net":"2022-11-27T12:20:00Z","window_end":"2022-11-27T12:35:00Z","window_start":"2022-11-27T12:10:00Z","inhold":false,"tbdtime":false,"tbddate":false,"probability":null,"holdreason":"","failreason":"","hashtag":null,"launch_service_provider":{"id":88,"url":"https://ll.thespacedevs.com/2.0.0/agencies/88/","name":"China Aerospace Science and Technology Corporation","type":"Government"},"rocket":{"id":7704,"configuration":{"id":17,"launch_library_id":73,"url":"https://ll.thespacedevs.com/2.0.0/config/launcher/17/","name":"Long March 2D","family":"Long March 2","full_name":"Long March 2D","variant":"2D"}},"mission":{"id":6222,"launch_library_id":null,"name":"Yaogan 36 Group 03","description":"3 Chinese military reconnaissance satellites.","launch_designator":null,"type":"Government/Top Secret","orbit":{"id":8,"name":"Low Earth Orbit","abbrev":"LEO"}},"pad":{"id":66,"url":"https://ll.thespacedevs.com/2.0.0/pad/66/","agency_id":17,"name":"Launch Complex 3 ( LC-3 ) ( LA-1 )","info_url":null,"wiki_url":"https://en.wikipedia.org/wiki/Xichang_Satellite_Launch_Center","map_url":"https://www.google.com/maps/?q=28.246017,102.026556","latitude":"28.246017","longitude":"102.026556","location":{"id":16,"url":"https://ll.thespacedevs.com/2.0.0/location/16/","name":"Xichang Satellite Launch Center, People's Republic of China","country_code":"CHN","map_image":"https://spacelaunchnow-prod-east.nyc3.digitaloceanspaces.com/media/launch_images/location_16_20200803142513.jpg","total_launch_count":179,"total_landing_count":0},"map_image":"https://spacelaunchnow-prod-east.nyc3.digitaloceanspaces.com/media/launch_images/pad_66_20200803143611.jpg","total_launch_count":67},"webcast_live":false,"image":"https://spacelaunchnow-prod-east.nyc3.digitaloceanspaces.com/media/launcher_images/long2520march25202d_image_20190222031211.jpeg","infographic":null,"program":[]},{"id":"58ba48e0-641b-49f5-b930-10e4de71147a","url":"https://ll.thespacedevs.com/2.0.0/launch/58ba48e0-641b-49f5-b930-10e4de71147a/","launch_library_id":null,"slug":"soyuz-21bfregat-m-glonass-m-no-61","name":"Soyuz 2.1b/Fregat-M | Glonass-M No. 61","status":{"id":1,"name":"Go"},"net":"2022-11-27T15:30:00Z","window_end":"2022-11-27T17:30:00Z","window_start":"2022-11-27T15:00:00Z","inhold":false,"tbdtime":false,"tbddate":false,"probability":null,"holdreason":"","failreason":"","hashtag":null,"launch_service_provider":{"id":193,"url":"https://ll.thespacedevs.com/2.0.0/agencies/193/","name":"Russian Space Forces","type":"Government"},"rocket":{"id":7706,"configuration":{"id":134,"launch_library_id":153,"url":"https://ll.thespacedevs.com/2.0.0/config/launcher/134/","name":"Soyuz 2.1b/Fregat-M","family":"Soyuz","full_name":"Soyuz 2.1b Fregat-M","variant":"Fregat-M"}},"mission":{"id":6224,"launch_library_id":null,"name":"Glonass-M No. 61","description":"Glonass-M, also known as Uragan-M, are the second generation of Uragan satellite design used for GLONASS satellite navigation system. GLONASS is a Russian space-based navigation system comparable to the similar GPS and Galileo systems. This generation improves on accuracy, power consumption and design life. Each satellite weighs 1415 kg, is equipped with 12 L-band antennas, and has an operational lifetime of 7 years.","launch_designator":null,"type":"Navigation","orbit":{"id":12,"name":"Medium Earth Orbit","abbrev":"MEO"}},"pad":{"id":36,"url":"https://ll.thespacedevs.com/2.0.0/pad/36/","agency_id":163,"name":"43/3 (43L)","info_url":null,"wiki_url":"","map_url":"http://maps.google.com/maps?f=q&amp;hl=en&amp;q=62.9273+N,+40.450+E&amp;ie=UTF8&amp;z=16&amp;ll=62.92755,40.450008&amp;spn=0.004365,0.021629&amp;t=h&amp;om=0&amp;iwloc=addr","latitude":"62.9273","longitude":"40.45","location":{"id":6,"url":"https://ll.thespacedevs.com/2.0.0/location/6/","name":"Plesetsk Cosmodrome, Russian Federation","country_code":"RUS","map_image":"https://spacelaunchnow-prod-east.nyc3.digitaloceanspaces.com/media/launch_images/location_6_20200803142434.jpg","total_launch_count":1657,"total_landing_count":0},"map_image":"https://spacelaunchnow-prod-east.nyc3.digitaloceanspaces.com/media/launch_images/pad_36_20200803143534.jpg","total_launch_count":225},"webcast_live":false,"image":"https://spacelaunchnow-prod-east.nyc3.digitaloceanspaces.com/media/launcher_images/soyuz25202.1b_image_20190520165337.jpg","infographic":null,"program":[]},{"id":"1ad83a7d-1977-4075-a1e7-3a443da14f72","url":"https://ll.thespacedevs.com/2.0.0/launch/1ad83a7d-1977-4075-a1e7-3a443da14f72/","launch_library_id":null,"slug":"long-march-2fg-shenzhou-15","name":"Long March 2F/G | Shenzhou 15","status":{"id":1,"name":"Go"},"net":"2022-11-29T15:08:00Z","window_end":"2022-11-29T15:39:00Z","window_start":"2022-11-29T14:58:00Z","inhold":false,"tbdtime":false,"tbddate":false,"probability":null,"holdreason":"","failreason":"","hashtag":null,"launch_service_provider":{"id":88,"url":"https://ll.thespacedevs.com/2.0.0/agencies/88/","name":"China Aerospace Science and Technology Corporation","type":"Government"},"rocket":{"id":2863,"configuration":{"id":84,"launch_library_id":111,"url":"https://ll.thespacedevs.com/2.0.0/config/launcher/84/","name":"Long March 2","family":"Long March 2","full_name":"Long March 2F/G","variant":"F/G"}},"mission":{"id":1279,"launch_library_id":null,"name":"Shenzhou 15","description":"Fourth crewed flight to the Chinese large modular space station.","launch_designator":null,"type":"Human Exploration","orbit":{"id":8,"name":"Low Earth Orbit","abbrev":"LEO"}},"pad":{"id":37,"url":"https://ll.thespacedevs.com/2.0.0/pad/37/","agency_id":null,"name":"Launch Area 4 (SLS-1 / 921)","info_url":null,"wiki_url":"https://en.wikipedia.org/wiki/Jiuquan_Launch_Area_4","map_url":"http://maps.google.com/maps?q=40.958093,100.291188","latitude":"40.958093","longitude":"100.291188","location":{"id":17,"url":"https://ll.thespacedevs.com/2.0.0/location/17/","name":"Jiuquan, People's Republic of China","country_code":"CHN","map_image":"https://spacelaunchnow-prod-east.nyc3.digitaloceanspaces.com/media/launch_images/location_17_20200803142429.jpg","total_launch_count":177,"total_landing_count":0},"map_image":"https://spacelaunchnow-prod-east.nyc3.digitaloceanspaces.com/media/launch_images/pad_37_20200803143603.jpg","total_launch_count":18},"webcast_live":false,"image":"https://spacelaunchnow-prod-east.nyc3.digitaloceanspaces.com/media/launcher_images/long_march_2_image_20210908195835.jpeg","infographic":null,"program":[{"id":7,"url":"https://ll.thespacedevs.com/2.0.0/program/7/","name":"Shenzhou","description":"The Shenzhou program is a crewed spaceflight initiative by China. The program put the first Chinese citizen, Yang Liwei, into orbit on 15 October 2003.","agencies":[{"id":17,"url":"https://ll.thespacedevs.com/2.0.0/agencies/17/","name":"China National Space Administration","type":"Government"}],"image_url":"https://spacelaunchnow-prod-east.nyc3.digitaloceanspaces.com/media/program_images/shenzhou_program_20200820204745.PNG","start_date":"1993-01-01T00:00:00Z","end_date":null,"info_url":null,"wiki_url":"https://en.wikipedia.org/wiki/Shenzhou_program"},{"id":19,"url":"https://ll.thespacedevs.com/2.0.0/program/19/","name":"Tiangong space station","description":"The Tiangong space station is a space station placed in Low Earth orbit between 340 and 450 km above the surface.","agencies":[{"id":88,"url":"https://ll.thespacedevs.com/2.0.0/agencies/88/","name":"China Aerospace Science and Technology Corporation","type":"Government"}],"image_url":"https://spacelaunchnow-prod-east.nyc3.digitaloceanspaces.com/media/program_images/chinese2520spa_program_20210608105528.png","start_date":"2021-04-29T03:23:00Z","end_date":null,"info_url":null,"wiki_url":"https://en.wikipedia.org/wiki/Tiangong_space_station"}]},{"id":"050eecbc-ebfc-4656-9fee-1dbc5e5c59a4","url":"https://ll.thespacedevs.com/2.0.0/launch/050eecbc-ebfc-4656-9fee-1dbc5e5c59a4/","launch_library_id":null,"slug":"falcon-9-block-5-starlink-group-2-4","name":"Falcon 9 Block 5 | Starlink Group 2-4","status":{"id":2,"name":"TBD"},"net":"2022-11-30T00:00:00Z","window_end":"2022-11-30T00:00:00Z","window_start":"2022-11-30T00:00:00Z","inhold":false,"tbdtime":false,"tbddate":false,"probability":null,"holdreason":"","failreason":"","hashtag":null,"launch_service_provider":{"id":121,"url":"https://ll.thespacedevs.com/2.0.0/agencies/121/","name":"SpaceX","type":"Commercial"},"rocket":{"id":7651,"configuration":{"id":164,"launch_library_id":188,"url":"https://ll.thespacedevs.com/2.0.0/config/launcher/164/","name":"Falcon 9","family":"Falcon","full_name":"Falcon 9 Block 5","variant":"Block 5"}},"mission":{"id":6169,"launch_library_id":null,"name":"Starlink Group 2-4","description":"A batch of satellites for Starlink mega-constellation - SpaceX's project for space-based Internet communication system.","launch_designator":null,"type":"Communications","orbit":{"id":8,"name":"Low Earth Orbit","abbrev":"LEO"}},"pad":{"id":16,"url":"https://ll.thespacedevs.com/2.0.0/pad/16/","agency_id":null,"name":"Space Launch Complex 4E","info_url":null,"wiki_url":"","map_url":"http://maps.google.com/maps?q=34.632+N,+120.611+W","latitude":"34.632","longitude":"-120.611","location":{"id":11,"url":"https://ll.thespacedevs.com/2.0.0/location/11/","name":"Vandenberg SFB, CA, USA","country_code":"USA","map_image":"https://spacelaunchnow-prod-east.nyc3.digitaloceanspaces.com/media/launch_images/location_11_20200803142416.jpg","total_launch_count":707,"total_landing_count":6},"map_image":"https://spacelaunchnow-prod-east.nyc3.digitaloceanspaces.com/media/launch_images/pad_16_20200803143532.jpg","total_launch_count":98},"webcast_live":false,"image":"https://spacelaunchnow-prod-east.nyc3.digitaloceanspaces.com/media/launch_images/falcon2520925_image_20221009234147.png","infographic":null,"program":[]},{"id":"b0fbc1b8-f822-4345-95af-85782e2669d3","url":"https://ll.thespacedevs.com/2.0.0/launch/b0fbc1b8-f822-4345-95af-85782e2669d3/","launch_library_id":null,"slug":"launcherone-amber-1","name":"LauncherOne | Amber-1","status":{"id":2,"name":"TBD"},"net":"2022-11-30T00:00:00Z","window_end":"2022-11-30T00:00:00Z","window_start":"2022-11-30T00:00:00Z","inhold":false,"tbdtime":false,"tbddate":false,"probability":null,"holdreason":"","failreason":"","hashtag":null,"launch_service_provider":{"id":199,"url":"https://ll.thespacedevs.com/2.0.0/agencies/199/","name":"Virgin Orbit","type":"Commercial"},"rocket":{"id":7572,"configuration":{"id":141,"launch_library_id":173,"url":"https://ll.thespacedevs.com/2.0.0/config/launcher/141/","name":"LauncherOne","family":"Launcher","full_name":"LauncherOne","variant":"One"}},"mission":{"id":6012,"launch_library_id":null,"name":"Amber-1","description":"Amber-1, manufactured by AAC Clyde in Scotland is a satellite which provides Maritime Domain Awareness (MDA). This mission marks the first launch from the United Kingdom.","launch_designator":null,"type":"Earth Science","orbit":{"id":8,"name":"Low Earth Orbit","abbrev":"LEO"}},"pad":{"id":189,"url":"https://ll.thespacedevs.com/2.0.0/pad/189/","agency_id":199,"name":"Spaceport Cornwall","info_url":"https://spaceportcornwall.com/","wiki_url":"https://en.wikipedia.org/wiki/Newquay_Airport","map_url":"https://www.google.com/maps/?q=50.4408333,-4.9974718","latitude":"50.4408333","longitude":"-4.9974718","location":{"id":20,"url":"https://ll.thespacedevs.com/2.0.0/location/20/","name":"Air launch to orbit","country_code":"","map_image":"https://spacelaunchnow-prod-east.nyc3.digitaloceanspaces.com/media/launch_images/location_20_20200803142433.jpg","total_launch_count":50,"total_landing_count":0},"map_image":"https://spacelaunchnow-prod-east.nyc3.digitaloceanspaces.com/media/launch_images/pad_spaceport_cornwall_20210514102058.jpg","total_launch_count":0},"webcast_live":false,"image":"https://spacelaunchnow-prod-east.nyc3.digitaloceanspaces.com/media/launcher_images/launcherone_image_20200101110016.jpeg","infographic":null,"program":[]},{"id":"2306e0bc-e1a3-4a4a-9285-e1a94073655e","url":"https://ll.thespacedevs.com/2.0.0/launch/2306e0bc-e1a3-4a4a-9285-e1a94073655e/","launch_library_id":1949,"slug":"falcon-9-block-5-hakuto-r-m1-lunar-flashlight","name":"Falcon 9 Block 5 | Hakuto-R M1 & Lunar Flashlight","status":{"id":1,"name":"Go"},"net":"2022-11-30T08:39:00Z","window_end":"2022-11-30T08:39:00Z","window_start":"2022-11-30T08:39:00Z","inhold":false,"tbdtime":false,"tbddate":false,"probability":-1,"holdreason":"","failreason":"","hashtag":null,"launch_service_provider":{"id":121,"url":"https://ll.thespacedevs.com/2.0.0/agencies/121/","name":"SpaceX","type":"Commercial"},"rocket":{"id":2496,"configuration":{"id":164,"launch_library_id":188,"url":"https://ll.thespacedevs.com/2.0.0/config/launcher/164/","name":"Falcon 9","family":"Falcon","full_name":"Falcon 9 Block 5","variant":"Block 5"}},"mission":{"id":6161,"launch_library_id":null,"name":"Hakuto-R M1 & Lunar Flashlight","description":"First mission of the Hakuto-R commercial lunar lander developed by private Japanese company ispace.\r\n\r\nRideshare includes Lunar Flashlight, NASA's cubesat that will search for water ice at the Moon’s South Pole.","launch_designator":null,"type":"Lunar Exploration","orbit":{"id":11,"name":"Lunar Orbit","abbrev":"LO"}},"pad":{"id":80,"url":"https://ll.thespacedevs.com/2.0.0/pad/80/","agency_id":121,"name":"Space Launch Complex 40","info_url":null,"wiki_url":"https://en.wikipedia.org/wiki/Cape_Canaveral_Air_Force_Station_Space_Launch_Complex_40","map_url":"http://maps.google.com/maps?q=28.56194122,-80.57735736","latitude":"28.56194122","longitude":"-80.57735736","location":{"id":12,"url":"https://ll.thespacedevs.com/2.0.0/location/12/","name":"Cape Canaveral, FL, USA","country_code":"USA","map_image":"https://spacelaunchnow-prod-east.nyc3.digitaloceanspaces.com/media/launch_images/location_12_20200803142519.jpg","total_launch_count":865,"total_landing_count":26},"map_image":"https://spacelaunchnow-prod-east.nyc3.digitaloceanspaces.com/media/launch_images/pad_80_20200803143323.jpg","total_launch_count":160},"webcast_live":false,"image":"https://spacelaunchnow-prod-east.nyc3.digitaloceanspaces.com/media/launcher_images/falcon_9_block__image_20210506060831.jpg","infographic":null,"program":[]},{"id":"5ff5ae93-813e-42bf-bd81-21071d6774e1","url":"https://ll.thespacedevs.com/2.0.0/launch/5ff5ae93-813e-42bf-bd81-21071d6774e1/","launch_library_id":null,"slug":"soyuz-21afregat-m-neitron-2","name":"Soyuz 2.1a/Fregat-M | Neitron #2","status":{"id":1,"name":"Go"},"net":"2022-11-30T22:00:00Z","window_end":"2022-11-30T23:00:00Z","window_start":"2022-11-30T21:00:00Z","inhold":false,"tbdtime":false,"tbddate":false,"probability":null,"holdreason":"","failreason":"","hashtag":null,"launch_service_provider":{"id":193,"url":"https://ll.thespacedevs.com/2.0.0/agencies/193/","name":"Russian Space Forces","type":"Government"},"rocket":{"id":7716,"configuration":{"id":45,"launch_library_id":83,"url":"https://ll.thespacedevs.com/2.0.0/config/launcher/45/","name":"Soyuz 2.1a/Fregat-M","family":"Soyuz","full_name":"Soyuz 2.1a Fregat-M","variant":"Fregat-M"}},"mission":{"id":6232,"launch_library_id":null,"name":"Neitron #2","description":"Payload suspected to be a new type of Russian military intelligence satellite called Neitron.","launch_designator":null,"type":"Government/Top Secret","orbit":{"id":8,"name":"Low Earth Orbit","abbrev":"LEO"}},"pad":{"id":85,"url":"https://ll.thespacedevs.com/2.0.0/pad/85/","agency_id":163,"name":"43/4 (43R)","info_url":null,"wiki_url":"","map_url":"http://maps.google.com/maps?q=62.929+N,+40.457+E","latitude":"62.92883","longitude":"40.457098","location":{"id":6,"url":"https://ll.thespacedevs.com/2.0.0/location/6/","name":"Plesetsk Cosmodrome, Russian Federation","country_code":"RUS","map_image":"https://spacelaunchnow-prod-east.nyc3.digitaloceanspaces.com/media/launch_images/location_6_20200803142434.jpg","total_launch_count":1657,"total_landing_count":0},"map_image":"https://spacelaunchnow-prod-east.nyc3.digitaloceanspaces.com/media/launch_images/pad_85_20200803143554.jpg","total_launch_count":309},"webcast_live":false,"image":"https://spacelaunchnow-prod-east.nyc3.digitaloceanspaces.com/media/launcher_images/soyuz25202.1a_image_20190726062341.png","infographic":null,"program":[]},{"id":"86ea974e-6464-4960-85df-11af88852d57","url":"https://ll.thespacedevs.com/2.0.0/launch/86ea974e-6464-4960-85df-11af88852d57/","launch_library_id":1959,"slug":"zhuque-2-maiden-flight","name":"Zhuque-2 | Maiden Flight","status":{"id":2,"name":"TBD"},"net":"2022-12-03T00:00:00Z","window_end":"2022-12-03T00:00:00Z","window_start":"2022-12-03T00:00:00Z","inhold":false,"tbdtime":false,"tbddate":false,"probability":-1,"holdreason":"","failreason":"","hashtag":null,"launch_service_provider":{"id":259,"url":"https://ll.thespacedevs.com/2.0.0/agencies/259/","name":"LandSpace","type":"Commercial"},"rocket":{"id":2514,"configuration":{"id":199,"launch_library_id":225,"url":"https://ll.thespacedevs.com/2.0.0/config/launcher/199/","name":"Zhuque-2","family":"Zhuque","full_name":"Zhuque-2","variant":""}},"mission":{"id":1026,"launch_library_id":1227,"name":"Maiden Flight","description":"First flight of the new methalox rocket developed by Chinese startup LandSpace.","launch_designator":null,"type":"Test Flight","orbit":null},"pad":{"id":71,"url":"https://ll.thespacedevs.com/2.0.0/pad/71/","agency_id":null,"name":"Unknown Pad","info_url":null,"wiki_url":"","map_url":"","latitude":"40.958","longitude":"100.291","location":{"id":17,"url":"https://ll.thespacedevs.com/2.0.0/location/17/","name":"Jiuquan, People's Republic of China","country_code":"CHN","map_image":"https://spacelaunchnow-prod-east.nyc3.digitaloceanspaces.com/media/launch_images/location_17_20200803142429.jpg","total_launch_count":177,"total_landing_count":0},"map_image":"https://spacelaunchnow-prod-east.nyc3.digitaloceanspaces.com/media/launch_images/pad_71_20200803143610.jpg","total_launch_count":32},"webcast_live":false,"image":"https://spacelaunchnow-prod-east.nyc3.digitaloceanspaces.com/media/launcher_images/zhuque-2_image_20200905210848.jpg","infographic":null,"program":[]}]}